{
  "annotations": {
    "list": [
      {
        "builtIn": 1,
        "datasource": "-- Grafana --",
        "enable": true,
        "hide": true,
        "iconColor": "rgba(0, 211, 255, 1)",
        "name": "Annotations & Alerts",
        "target": {
          "limit": 100,
          "matchAny": false,
          "tags": [],
          "type": "dashboard"
        },
        "type": "dashboard"
      }
    ]
  },
  "description": "This is a dashboard for Sonarr v3 (exportarr does not work with Sonarr v2). You will need to install exportarr (https://github.com/onedr0p/exportarr) in order to use this dashboard.",
  "editable": true,
  "fiscalYearStartMonth": 0,
  "gnetId": 12530,
  "graphTooltip": 0,
  "id": 10,
  "links": [],
  "liveNow": false,
  "panels": [
    {
      "collapsed": false,
      "datasource": {
        "type": "prometheus",
        "uid": "PBFA97CFB590B2093"
      },
      "gridPos": {
        "h": 1,
        "w": 24,
        "x": 0,
        "y": 0
      },
      "id": 6,
      "panels": [],
      "title": "Show Information",
      "type": "row"
    },
    {
      "datasource": {
        "type": "prometheus",
        "uid": "PBFA97CFB590B2093"
      },
      "description": "",
      "fieldConfig": {
        "defaults": {
          "mappings": [],
          "thresholds": {
            "mode": "absolute",
            "steps": [
              {
                "color": "rgb(255, 255, 255)",
                "value": null
              }
            ]
          }
        },
        "overrides": []
      },
      "gridPos": {
        "h": 8,
        "w": 4,
        "x": 0,
        "y": 1
      },
      "id": 16,
      "interval": "",
      "options": {
        "colorMode": "value",
        "graphMode": "none",
        "justifyMode": "auto",
        "orientation": "horizontal",
        "reduceOptions": {
          "calcs": [
            "mean"
          ],
          "fields": "",
          "values": false
        },
        "textMode": "auto"
      },
      "pluginVersion": "8.4.6",
      "targets": [
        {
          "expr": "sonarr_queue_total OR on() vector(0)",
          "instant": true,
          "interval": "",
          "legendFormat": "Queued",
          "refId": "A"
        },
        {
          "expr": "sonarr_history_total",
          "hide": false,
          "instant": true,
          "interval": "",
          "legendFormat": "Completed",
          "refId": "B"
        }
      ],
      "title": "Downloads",
      "type": "stat"
    },
    {
      "datasource": {
        "type": "prometheus",
        "uid": "PBFA97CFB590B2093"
      },
      "description": "",
      "fieldConfig": {
        "defaults": {
          "mappings": [],
          "thresholds": {
            "mode": "absolute",
            "steps": [
              {
                "color": "rgb(255, 255, 255)",
                "value": null
              }
            ]
          }
        },
        "overrides": []
      },
      "gridPos": {
        "h": 8,
        "w": 4,
        "x": 4,
        "y": 1
      },
      "id": 8,
      "interval": "",
      "options": {
        "colorMode": "value",
        "graphMode": "none",
        "justifyMode": "auto",
        "orientation": "horizontal",
        "reduceOptions": {
          "calcs": [
            "mean"
          ],
          "fields": "",
          "values": false
        },
        "textMode": "auto"
      },
      "pluginVersion": "8.4.6",
      "targets": [
        {
          "expr": "sonarr_series_monitored_total",
          "instant": false,
          "interval": "",
          "legendFormat": "Monitored",
          "refId": "A"
        },
        {
          "expr": "sonarr_series_total",
          "interval": "",
          "legendFormat": "Total",
          "refId": "B"
        }
      ],
      "title": "Series",
      "type": "stat"
    },
    {
      "datasource": {
        "type": "prometheus",
        "uid": "PBFA97CFB590B2093"
      },
      "description": "",
      "fieldConfig": {
        "defaults": {
          "mappings": [],
          "thresholds": {
            "mode": "absolute",
            "steps": [
              {
                "color": "rgb(255, 255, 255)",
                "value": null
              }
            ]
          }
        },
        "overrides": []
      },
      "gridPos": {
        "h": 8,
        "w": 4,
        "x": 8,
        "y": 1
      },
      "id": 15,
      "interval": "",
      "options": {
        "colorMode": "value",
        "graphMode": "none",
        "justifyMode": "auto",
        "orientation": "horizontal",
        "reduceOptions": {
          "calcs": [
            "mean"
          ],
          "fields": "",
          "values": false
        },
        "textMode": "auto"
      },
      "pluginVersion": "8.4.6",
      "targets": [
        {
          "expr": "sonarr_season_monitored_total",
          "instant": false,
          "interval": "",
          "legendFormat": "Monitored",
          "refId": "A"
        },
        {
          "expr": "sonarr_season_total",
          "interval": "",
          "legendFormat": "Total",
          "refId": "B"
        }
      ],
      "title": "Seasons",
      "type": "stat"
    },
    {
      "datasource": {
        "type": "prometheus",
        "uid": "PBFA97CFB590B2093"
      },
      "description": "",
      "fieldConfig": {
        "defaults": {
          "mappings": [],
          "thresholds": {
            "mode": "absolute",
            "steps": [
              {
                "color": "rgb(255, 255, 255)",
                "value": null
              }
            ]
          }
        },
        "overrides": []
      },
      "gridPos": {
        "h": 8,
        "w": 4,
        "x": 12,
        "y": 1
      },
      "id": 14,
      "interval": "",
      "options": {
        "colorMode": "value",
        "graphMode": "none",
        "justifyMode": "auto",
        "orientation": "horizontal",
        "reduceOptions": {
          "calcs": [
            "mean"
          ],
          "fields": "",
          "values": false
        },
        "textMode": "auto"
      },
      "pluginVersion": "8.4.6",
      "targets": [
        {
          "expr": "sonarr_episode_downloaded_total",
          "instant": false,
          "interval": "",
          "legendFormat": "Downloaded",
          "refId": "A"
        },
        {
          "expr": "sonarr_episode_total",
          "interval": "",
          "legendFormat": "Total",
          "refId": "B"
        },
        {
          "expr": "sonarr_episode_missing_total",
          "interval": "",
          "legendFormat": "Missing",
          "refId": "C"
        }
      ],
      "title": "Episodes",
      "type": "stat"
    },
    {
      "collapsed": false,
      "datasource": {
        "type": "prometheus",
        "uid": "PBFA97CFB590B2093"
      },
      "gridPos": {
        "h": 1,
        "w": 24,
        "x": 0,
        "y": 9
      },
      "id": 12,
      "panels": [],
      "title": "Storage",
      "type": "row"
    },
    {
      "datasource": {
        "type": "prometheus",
        "uid": "PBFA97CFB590B2093"
      },
      "description": "",
      "fieldConfig": {
        "defaults": {
          "mappings": [],
          "thresholds": {
            "mode": "absolute",
            "steps": [
              {
                "color": "rgb(255, 255, 255)",
                "value": null
              }
            ]
          },
          "unit": "decbytes"
        },
        "overrides": []
      },
      "gridPos": {
        "h": 5,
        "w": 3,
        "x": 0,
        "y": 10
      },
      "id": 10,
      "interval": "",
      "options": {
        "colorMode": "value",
        "graphMode": "none",
        "justifyMode": "auto",
        "orientation": "auto",
        "reduceOptions": {
          "calcs": [
            "mean"
          ],
          "fields": "",
          "values": false
        },
        "textMode": "auto"
      },
      "pluginVersion": "8.4.6",
      "targets": [
        {
          "expr": "sonarr_series_filesize_bytes",
          "instant": false,
          "interval": "",
          "legendFormat": "",
          "refId": "A"
        }
      ],
      "title": "Storage Used",
      "type": "stat"
    },
    {
      "aliasColors": {},
      "breakPoint": "50%",
      "combine": {
        "label": "Others",
        "threshold": 0
      },
      "datasource": {
        "type": "prometheus",
        "uid": "PBFA97CFB590B2093"
      },
      "fontSize": "80%",
      "format": "short",
      "gridPos": {
        "h": 14,
        "w": 8,
        "x": 3,
        "y": 10
      },
      "id": 4,
      "legend": {
        "show": true,
        "sort": "current",
        "sortDesc": true,
        "values": true
      },
      "legendType": "Right side",
      "links": [],
      "maxDataPoints": 1,
      "nullPointMode": "connected",
      "pieType": "pie",
      "strokeWidth": 1,
      "targets": [
        {
          "expr": "sort_desc(sum(sonarr_episode_quality_total) by (quality))",
          "interval": "",
          "legendFormat": "{{ quality }}",
          "refId": "A"
        }
      ],
      "title": "Episode quality",
      "type": "grafana-piechart-panel",
      "valueName": "current"
    },
    {
      "datasource": {
        "type": "prometheus",
        "uid": "PBFA97CFB590B2093"
      },
      "description": "",
      "fieldConfig": {
        "defaults": {
          "mappings": [],
          "thresholds": {
            "mode": "absolute",
            "steps": [
              {
                "color": "rgb(255, 255, 255)",
                "value": null
              }
            ]
          },
          "unit": "decbytes"
        },
        "overrides": []
      },
      "gridPos": {
        "h": 9,
        "w": 3,
        "x": 0,
        "y": 15
      },
      "id": 13,
      "interval": "",
      "options": {
        "colorMode": "value",
        "graphMode": "none",
        "justifyMode": "auto",
        "orientation": "horizontal",
        "reduceOptions": {
          "calcs": [
            "mean"
          ],
          "fields": "",
          "values": false
        },
        "textMode": "auto"
      },
      "pluginVersion": "8.4.6",
      "targets": [
        {
          "expr": "sonarr_rootfolder_freespace_bytes",
          "instant": false,
          "interval": "",
          "legendFormat": "{{ path }}",
          "refId": "A"
        }
      ],
      "title": "Storage Available",
      "type": "stat"
    }
  ],
  "refresh": "5s",
  "schemaVersion": 35,
  "style": "dark",
  "tags": [],
  "templating": {
    "list": []
  },
  "time": {
    "from": "now-6h",
    "to": "now"
  },
  "timepicker": {
    "refresh_intervals": [
      "10s",
      "30s",
      "1m",
      "5m",
      "15m",
      "30m",
      "1h",
      "2h",
      "1d"
    ]
  },
  "timezone": "",
  "title": "Sonarr v3",
  "uid": "vGjT_QWMk",
  "version": 1,
  "weekStart": ""
}