{
  "__inputs": [],
  "__elements": [],
  "__requires": [
    {
      "type": "panel",
      "id": "dashlist",
      "name": "Dashboard list",
      "version": ""
    },
    {
      "type": "grafana",
      "id": "grafana",
      "name": "Grafana",
      "version": "8.4.6"
    },
    {
      "type": "panel",
      "id": "text",
      "name": "Text",
      "version": ""
    }
  ],
  "annotations": {
    "list": [
      {
        "builtIn": 1,
        "datasource": "-- Grafana --",
        "enable": true,
        "hide": true,
        "iconColor": "rgba(0, 211, 255, 1)",
        "name": "Annotations & Alerts",
        "target": {
          "limit": 100,
          "matchAny": false,
          "tags": [],
          "type": "dashboard"
        },
        "type": "dashboard"
      }
    ]
  },
  "editable": true,
  "fiscalYearStartMonth": 0,
  "graphTooltip": 0,
  "id": null,
  "links": [],
  "liveNow": false,
  "panels": [
    {
      "description": "",
      "gridPos": {
        "h": 8,
        "w": 17,
        "x": 3,
        "y": 0
      },
      "id": 4,
      "links": [],
      "options": {
        "content": "<div>\n<p style=\"text-align:center\"><img alt=\"\" height=\"100\" src=\"https://images2.imgbox.com/ad/dd/D3N8Y0Gp_o.png\" width=\"492\" /></p>\n</div>\n\n<div>&nbsp;</div>\n\n<div><span style=\"font-size:18px\">Seja bem-vindo ao nosso Grafana, aqui constru&iacute;mos dashboards para facilitar nosso dia a dia. Caso tenha interesse de adicionar m&eacute;tricas basta procurar o time de Qualidade.</span></div>\n\n<div>&nbsp;</div>\n\n<div><span style=\"font-size:18px\">Abaixo teremos a listagem de nossos dashboards.</span></div>\n\n<div><span style=\"font-size:18px\">Aproveite e navegue em nossa p&aacute;gina no confluence: <a href=\"https://globo.atlassian.net/wiki/spaces/JCTA/pages/403539787779/Qualidade\">Qualidade</a></span></div>\n\n<div>&nbsp;</div>\n",
        "mode": "html"
      },
      "pluginVersion": "8.4.6",
      "type": "text"
    },
    {
      "gridPos": {
        "h": 15,
        "w": 17,
        "x": 3,
        "y": 8
      },
      "id": 3,
      "links": [],
      "options": {
        "folderId": 0,
        "maxItems": 30,
        "query": "",
        "showHeadings": true,
        "showRecentlyViewed": false,
        "showSearch": true,
        "showStarred": true,
        "tags": []
      },
      "pluginVersion": "8.4.6",
      "tags": [],
      "title": "Dashboards",
      "type": "dashlist"
    }
  ],
  "refresh": "",
  "schemaVersion": 35,
  "style": "dark",
  "tags": [],
  "templating": {
    "list": []
  },
  "time": {
    "from": "now-6h",
    "to": "now"
  },
  "timepicker": {
    "hidden": true,
    "refresh_intervals": [
      "5s",
      "10s",
      "30s",
      "1m",
      "5m",
      "15m",
      "30m",
      "1h",
      "2h",
      "1d"
    ],
    "time_options": [
      "5m",
      "15m",
      "1h",
      "6h",
      "12h",
      "24h",
      "2d",
      "7d",
      "30d"
    ],
    "type": "timepicker"
  },
  "timezone": "browser",
  "title": "Home",
  "uid": "tpwkuXu7k",
  "version": 12,
  "weekStart": ""
}